<svg xmlns="http://www.w3.org/2000/svg" xmlns:xlink="http://www.w3.org/1999/xlink" width="701" height="453" viewBox="0 0 701 453">
  <defs>
    <filter id="Rectangle_79" x="0" y="0" width="660" height="420" filterUnits="userSpaceOnUse">
      <feOffset dy="10" input="SourceAlpha"/>
      <feGaussianBlur stdDeviation="10" result="blur"/>
      <feFlood flood-color="#2329d6" flood-opacity="0.161"/>
      <feComposite operator="in" in2="blur"/>
      <feComposite in="SourceGraphic"/>
    </filter>
    <filter id="Rectangle_58" x="297" y="168" width="66" height="66" filterUnits="userSpaceOnUse">
      <feOffset dy="1" input="SourceAlpha"/>
      <feGaussianBlur stdDeviation="1" result="blur-2"/>
      <feFlood flood-opacity="0.161"/>
      <feComposite operator="in" in2="blur-2"/>
      <feComposite in="SourceGraphic"/>
    </filter>
    <filter id="Rectangle_77" x="407" y="278" width="156" height="56" filterUnits="userSpaceOnUse">
      <feOffset dy="1" input="SourceAlpha"/>
      <feGaussianBlur stdDeviation="1" result="blur-3"/>
      <feFlood flood-color="#2329d6" flood-opacity="0.161"/>
      <feComposite operator="in" in2="blur-3"/>
      <feComposite in="SourceGraphic"/>
    </filter>
    <filter id="Rectangle_77-2" x="407" y="208" width="156" height="56" filterUnits="userSpaceOnUse">
      <feOffset dy="1" input="SourceAlpha"/>
      <feGaussianBlur stdDeviation="1" result="blur-4"/>
      <feFlood flood-color="#2329d6" flood-opacity="0.161"/>
      <feComposite operator="in" in2="blur-4"/>
      <feComposite in="SourceGraphic"/>
    </filter>
    <filter id="Rectangle_77-3" x="407" y="138" width="156" height="56" filterUnits="userSpaceOnUse">
      <feOffset dy="1" input="SourceAlpha"/>
      <feGaussianBlur stdDeviation="1" result="blur-5"/>
      <feFlood flood-color="#2329d6" flood-opacity="0.161"/>
      <feComposite operator="in" in2="blur-5"/>
      <feComposite in="SourceGraphic"/>
    </filter>
    <filter id="Rectangle_77-4" x="407" y="68" width="156" height="56" filterUnits="userSpaceOnUse">
      <feOffset dy="1" input="SourceAlpha"/>
      <feGaussianBlur stdDeviation="1" result="blur-6"/>
      <feFlood flood-color="#2329d6" flood-opacity="0.161"/>
      <feComposite operator="in" in2="blur-6"/>
      <feComposite in="SourceGraphic"/>
    </filter>
    <filter id="Rectangle_77-5" x="97" y="278" width="156" height="56" filterUnits="userSpaceOnUse">
      <feOffset dy="1" input="SourceAlpha"/>
      <feGaussianBlur stdDeviation="1" result="blur-7"/>
      <feFlood flood-color="#2329d6" flood-opacity="0.161"/>
      <feComposite operator="in" in2="blur-7"/>
      <feComposite in="SourceGraphic"/>
    </filter>
    <filter id="Rectangle_77-6" x="97" y="208" width="156" height="56" filterUnits="userSpaceOnUse">
      <feOffset dy="1" input="SourceAlpha"/>
      <feGaussianBlur stdDeviation="1" result="blur-8"/>
      <feFlood flood-color="#2329d6" flood-opacity="0.161"/>
      <feComposite operator="in" in2="blur-8"/>
      <feComposite in="SourceGraphic"/>
    </filter>
    <filter id="Rectangle_77-7" x="97" y="138" width="156" height="56" filterUnits="userSpaceOnUse">
      <feOffset dy="1" input="SourceAlpha"/>
      <feGaussianBlur stdDeviation="1" result="blur-9"/>
      <feFlood flood-color="#2329d6" flood-opacity="0.161"/>
      <feComposite operator="in" in2="blur-9"/>
      <feComposite in="SourceGraphic"/>
    </filter>
    <filter id="Rectangle_77-8" x="97" y="68" width="156" height="56" filterUnits="userSpaceOnUse">
      <feOffset dy="1" input="SourceAlpha"/>
      <feGaussianBlur stdDeviation="1" result="blur-10"/>
      <feFlood flood-color="#2329d6" flood-opacity="0.161"/>
      <feComposite operator="in" in2="blur-10"/>
      <feComposite in="SourceGraphic"/>
    </filter>
  </defs>
  <g id="Group_98" data-name="Group 98" transform="translate(-636 -184)">
    <g id="Group_65" data-name="Group 65" transform="translate(0 -1)">
      <g transform="matrix(1, 0, 0, 1, 636, 185)" filter="url(#Rectangle_79)">
        <g id="Rectangle_79-2" data-name="Rectangle 79" transform="translate(30 20)" fill="#fbfbfd" stroke="#a4a7cc" stroke-width="1">
          <rect width="600" height="360" rx="8" stroke="none"/>
          <rect x="0.5" y="0.5" width="599" height="359" rx="7.5" fill="none"/>
        </g>
      </g>
      <g id="Group_50" data-name="Group 50" transform="translate(-4802 -897)">
        <g transform="matrix(1, 0, 0, 1, 5438, 1082)" filter="url(#Rectangle_58)">
          <g id="Rectangle_58-2" data-name="Rectangle 58" transform="translate(300 170)" fill="#fff" stroke="#2329d6" stroke-width="1">
            <rect width="60" height="60" rx="8" stroke="none"/>
            <rect x="0.5" y="0.5" width="59" height="59" rx="7.5" fill="none"/>
          </g>
        </g>
        <g id="Group" transform="translate(5748 1262)">
          <circle id="Ellipse_1" data-name="Ellipse 1" cx="4.928" cy="4.928" r="4.928" transform="translate(15.362 15.072)" fill="#2329d6"/>
          <circle id="Ellipse_2" data-name="Ellipse 2" cx="4.058" cy="4.058" r="4.058" transform="translate(25.797 15.942)" fill="#2329d6"/>
          <circle id="Ellipse_3" data-name="Ellipse 3" cx="4.058" cy="4.058" r="4.058" transform="translate(6.087 15.942)" fill="#2329d6"/>
          <circle id="Ellipse_4" data-name="Ellipse 4" cx="2.609" cy="2.609" r="2.609" transform="translate(8.986 26.087)" fill="#2329d6"/>
          <circle id="Ellipse_5" data-name="Ellipse 5" cx="2.319" cy="2.319" r="2.319" transform="translate(17.971 35.362)" fill="#2329d6"/>
          <circle id="Ellipse_6" data-name="Ellipse 6" cx="2.319" cy="2.319" r="2.319" transform="translate(17.971 0)" fill="#2329d6"/>
          <circle id="Ellipse_7" data-name="Ellipse 7" cx="2.319" cy="2.319" r="2.319" transform="translate(0 17.681)" fill="#2329d6"/>
          <circle id="Ellipse_8" data-name="Ellipse 8" cx="2.319" cy="2.319" r="2.319" transform="translate(35.362 17.681)" fill="#2329d6"/>
          <circle id="Ellipse_9" data-name="Ellipse 9" cx="2.609" cy="2.609" r="2.609" transform="translate(25.797 26.087)" fill="#2329d6"/>
          <circle id="Ellipse_10" data-name="Ellipse 10" cx="2.609" cy="2.609" r="2.609" transform="translate(25.797 8.696)" fill="#2329d6"/>
          <circle id="Ellipse_11" data-name="Ellipse 11" cx="2.609" cy="2.609" r="2.609" transform="translate(8.986 8.696)" fill="#2329d6"/>
          <circle id="Ellipse_12" data-name="Ellipse 12" cx="4.058" cy="4.058" r="4.058" transform="translate(16.232 26.087)" fill="#2329d6"/>
          <circle id="Ellipse_13" data-name="Ellipse 13" cx="4.058" cy="4.058" r="4.058" transform="translate(16.232 5.797)" fill="#2329d6"/>
        </g>
      </g>
      <g id="Group_63" data-name="Group 63" transform="translate(-86 -48)">
        <g id="Group_59" data-name="Group 59" transform="translate(0 -20)">
          <g transform="matrix(1, 0, 0, 1, 722, 253)" filter="url(#Rectangle_77)">
            <rect id="Rectangle_77-9" data-name="Rectangle 77" width="150" height="50" rx="4" transform="translate(410 280)" fill="#fff"/>
          </g>
          <g id="Rectangle_78" data-name="Rectangle 78" transform="translate(1142 543)" fill="#fff" stroke="#707070" stroke-width="1">
            <rect width="30" height="30" rx="4" stroke="none"/>
            <rect x="0.5" y="0.5" width="29" height="29" rx="3.5" fill="none"/>
          </g>
          <g id="Group_58" data-name="Group 58" transform="translate(1149 550)">
            <path id="Path_690" data-name="Path 690" d="M6634,201V185l8.667,16V185" transform="translate(-6630.667 -185)" fill="none" stroke="#707070" stroke-linecap="round" stroke-linejoin="round" stroke-width="1.5"/>
            <path id="Path_691" data-name="Path 691" d="M6629,193h16" transform="translate(-6629 -187)" fill="none" stroke="#707070" stroke-linecap="round" stroke-width="1.5"/>
            <path id="Path_692" data-name="Path 692" d="M6629,201h16" transform="translate(-6629 -191)" fill="none" stroke="#707070" stroke-linecap="round" stroke-width="1.5"/>
          </g>
        </g>
        <g id="Group_60" data-name="Group 60" transform="translate(0 -90)">
          <g transform="matrix(1, 0, 0, 1, 722, 323)" filter="url(#Rectangle_77-2)">
            <rect id="Rectangle_77-10" data-name="Rectangle 77" width="150" height="50" rx="4" transform="translate(410 210)" fill="#fff"/>
          </g>
          <rect id="Rectangle_78-2" data-name="Rectangle 78" width="30" height="30" rx="4" transform="translate(1142 543)" fill="#ff5f58" opacity="0.1"/>
          <g id="clock" transform="translate(1148 549)">
            <circle id="Ellipse_25" data-name="Ellipse 25" cx="7" cy="7" r="7" transform="translate(2 2)" stroke-width="1" stroke="#ff5f58" stroke-linecap="round" stroke-linejoin="round" fill="none"/>
            <path id="Path_694" data-name="Path 694" d="M12,6v4.2l2.8,1.4" transform="translate(-3 -1.2)" fill="none" stroke="#ff5f58" stroke-linecap="round" stroke-linejoin="round" stroke-width="1"/>
          </g>
          <text id="_32_hours" data-name="32 hours" transform="translate(1182 564)" fill="#6f7089" font-size="16" font-family="Lato-Regular, Lato"><tspan x="0" y="0">32 hours</tspan></text>
        </g>
        <g id="Group_61" data-name="Group 61" transform="translate(0 -160)">
          <g transform="matrix(1, 0, 0, 1, 722, 393)" filter="url(#Rectangle_77-3)">
            <rect id="Rectangle_77-11" data-name="Rectangle 77" width="150" height="50" rx="4" transform="translate(410 140)" fill="#fff"/>
          </g>
          <rect id="Rectangle_78-3" data-name="Rectangle 78" width="30" height="30" rx="4" transform="translate(1142 543)" fill="#24b47e" opacity="0.1"/>
          <g id="dollar-sign" transform="translate(1147 550)">
            <line id="Line_3" data-name="Line 3" y2="14" transform="translate(9.818 1)" fill="none" stroke="#24b47e" stroke-linecap="round" stroke-linejoin="round" stroke-width="1"/>
            <path id="Path_693" data-name="Path 693" d="M13,5H8.227a2.227,2.227,0,1,0,0,4.455h3.182a2.227,2.227,0,1,1,0,4.455H6" transform="translate(0 -1.455)" fill="none" stroke="#24b47e" stroke-linecap="round" stroke-linejoin="round" stroke-width="1"/>
          </g>
          <text id="_1_173.29" data-name="1,173.29" transform="translate(1182 564)" fill="#6f7089" font-size="16" font-family="Lato-Regular, Lato"><tspan x="0" y="0">1,173.29</tspan></text>
        </g>
        <g id="Group_62" data-name="Group 62" transform="translate(0 -230)">
          <g transform="matrix(1, 0, 0, 1, 722, 463)" filter="url(#Rectangle_77-4)">
            <rect id="Rectangle_77-12" data-name="Rectangle 77" width="150" height="50" rx="4" transform="translate(410 70)" fill="#fff"/>
          </g>
          <rect id="Rectangle_78-4" data-name="Rectangle 78" width="30" height="30" rx="4" transform="translate(1142 543)" fill="#2329d6" opacity="0.1"/>
          <g id="Group_58-2" data-name="Group 58" transform="translate(1150 551)">
            <path id="Path_690-2" data-name="Path 690" d="M6634,199V185l7.584,14V185" transform="translate(-6631.083 -185)" fill="none" stroke="#2329d6" stroke-linecap="round" stroke-linejoin="round" stroke-width="1"/>
            <path id="Path_691-2" data-name="Path 691" d="M6629,193h14" transform="translate(-6629 -187.75)" fill="none" stroke="#2329d6" stroke-linecap="round" stroke-width="1"/>
            <path id="Path_692-2" data-name="Path 692" d="M6629,201h14" transform="translate(-6629 -192.25)" fill="none" stroke="#2329d6" stroke-linecap="round" stroke-width="1"/>
          </g>
          <text id="_53_129.32" data-name="53,129.32" transform="translate(1182 564)" fill="#6f7089" font-size="16" font-family="Lato-Regular, Lato"><tspan x="0" y="0">53,129.32</tspan></text>
        </g>
      </g>
      <g id="Group_64" data-name="Group 64" transform="translate(-396 -48)">
        <g id="Group_59-2" data-name="Group 59" transform="translate(0 -20)">
          <g transform="matrix(1, 0, 0, 1, 1032, 253)" filter="url(#Rectangle_77-5)">
            <rect id="Rectangle_77-13" data-name="Rectangle 77" width="150" height="50" rx="4" transform="translate(100 280)" fill="#fff"/>
          </g>
          <g id="Rectangle_78-5" data-name="Rectangle 78" transform="translate(1142 543)" fill="#fff" stroke="#707070" stroke-width="1">
            <rect width="30" height="30" rx="4" stroke="none"/>
            <rect x="0.5" y="0.5" width="29" height="29" rx="3.5" fill="none"/>
          </g>
          <g id="Group_58-3" data-name="Group 58" transform="translate(1149 550)">
            <path id="Path_690-3" data-name="Path 690" d="M6634,201V185l8.667,16V185" transform="translate(-6630.667 -185)" fill="none" stroke="#707070" stroke-linecap="round" stroke-linejoin="round" stroke-width="1.5"/>
            <path id="Path_691-3" data-name="Path 691" d="M6629,193h16" transform="translate(-6629 -187)" fill="none" stroke="#707070" stroke-linecap="round" stroke-width="1.5"/>
            <path id="Path_692-3" data-name="Path 692" d="M6629,201h16" transform="translate(-6629 -191)" fill="none" stroke="#707070" stroke-linecap="round" stroke-width="1.5"/>
          </g>
        </g>
        <g id="Group_60-2" data-name="Group 60" transform="translate(0 -90)">
          <g transform="matrix(1, 0, 0, 1, 1032, 323)" filter="url(#Rectangle_77-6)">
            <rect id="Rectangle_77-14" data-name="Rectangle 77" width="150" height="50" rx="4" transform="translate(100 210)" fill="#fff"/>
          </g>
          <g id="Rectangle_78-6" data-name="Rectangle 78" transform="translate(1142 543)" fill="#fff" stroke="#707070" stroke-width="1">
            <rect width="30" height="30" rx="4" stroke="none"/>
            <rect x="0.5" y="0.5" width="29" height="29" rx="3.5" fill="none"/>
          </g>
          <g id="Group_58-4" data-name="Group 58" transform="translate(1149 550)">
            <path id="Path_690-4" data-name="Path 690" d="M6634,201V185l8.667,16V185" transform="translate(-6630.667 -185)" fill="none" stroke="#707070" stroke-linecap="round" stroke-linejoin="round" stroke-width="1.5"/>
            <path id="Path_691-4" data-name="Path 691" d="M6629,193h16" transform="translate(-6629 -187)" fill="none" stroke="#707070" stroke-linecap="round" stroke-width="1.5"/>
            <path id="Path_692-4" data-name="Path 692" d="M6629,201h16" transform="translate(-6629 -191)" fill="none" stroke="#707070" stroke-linecap="round" stroke-width="1.5"/>
          </g>
        </g>
        <g id="Group_61-2" data-name="Group 61" transform="translate(0 -160)">
          <g transform="matrix(1, 0, 0, 1, 1032, 393)" filter="url(#Rectangle_77-7)">
            <rect id="Rectangle_77-15" data-name="Rectangle 77" width="150" height="50" rx="4" transform="translate(100 140)" fill="#fff"/>
          </g>
          <rect id="Rectangle_78-7" data-name="Rectangle 78" width="30" height="30" rx="4" transform="translate(1142 543)" fill="#2329d6" opacity="0.1"/>
          <g id="Group_69" data-name="Group 69" transform="translate(1146 548)">
            <path id="Path_707" data-name="Path 707" d="M6635,219v20h10V219Z" transform="translate(-6629 -219)" fill="none" stroke="#2329d6" stroke-linecap="round" stroke-linejoin="round" stroke-width="1"/>
            <g id="Ellipse_28" data-name="Ellipse 28" transform="translate(9.333 15)" fill="none" stroke="#2329d6" stroke-linecap="round" stroke-linejoin="round" stroke-width="1">
              <circle cx="1.667" cy="1.667" r="1.667" stroke="none"/>
              <circle cx="1.667" cy="1.667" r="1.167" fill="none"/>
            </g>
          </g>
          <text id="New_phone" data-name="New phone" transform="translate(1182 565)" fill="#6f7089" font-size="16" font-family="Lato-Regular, Lato"><tspan x="0" y="0">New phone</tspan></text>
        </g>
        <g id="Group_62-2" data-name="Group 62" transform="translate(0 -230)">
          <g transform="matrix(1, 0, 0, 1, 1032, 463)" filter="url(#Rectangle_77-8)">
            <rect id="Rectangle_77-16" data-name="Rectangle 77" width="150" height="50" rx="4" transform="translate(100 70)" fill="#fff"/>
          </g>
          <rect id="Rectangle_78-8" data-name="Rectangle 78" width="30" height="30" rx="4" transform="translate(1142 543)" fill="#ff5f58" opacity="0.1"/>
          <g id="Group_68" data-name="Group 68" transform="translate(1150 551)">
            <path id="Path_704" data-name="Path 704" d="M6600.5,225l-3.5,3.5,3.5,3.5" transform="translate(-6596 -221.5)" fill="none" stroke="#ff5f58" stroke-linecap="round" stroke-linejoin="round" stroke-width="1"/>
            <path id="Path_705" data-name="Path 705" d="M6615,225l3.5,3.5L6615,232" transform="translate(-6604.667 -221.5)" fill="none" stroke="#ff5f58" stroke-linecap="round" stroke-linejoin="round" stroke-width="1"/>
            <path id="Path_706" data-name="Path 706" d="M6609.667,219,6605,233" transform="translate(-6599.917 -219)" fill="none" stroke="#ff5f58" stroke-linecap="round" stroke-width="1"/>
          </g>
          <text id="App_Design" data-name="App Design" transform="translate(1182 565)" fill="#6f7089" font-size="16" font-family="Lato-Regular, Lato"><tspan x="0" y="0">App Design</tspan></text>
        </g>
      </g>
      <circle id="Ellipse_30" data-name="Ellipse 30" cx="6" cy="6" r="6" transform="translate(676 215)" fill="#a4a7cc"/>
      <circle id="Ellipse_31" data-name="Ellipse 31" cx="6" cy="6" r="6" transform="translate(694 215)" fill="#a4a7cc" opacity="0.5"/>
      <circle id="Ellipse_32" data-name="Ellipse 32" cx="6" cy="6" r="6" transform="translate(712 215)" fill="#a4a7cc" opacity="0.25"/>
    </g>
    <path id="Path_712" data-name="Path 712" d="M0,0H671.953V433.587H0Z" transform="translate(665.047 203.413)" fill="rgba(255,255,255,0)"/>
  </g>
</svg>
